 ### Generic Params

# Enviorment settings
set terminal pdf enhanced font 'Times-Roman,15' monochrome
set datafile separator ","

# Appearance
#set key outside 
#set key horizontal left top
set key horizontal top right inside maxcols 4 width 1
set key autotitle columnhead
set key inside
set offset -0.3,-0.3,graph 0.3,0

# Labels, plot axis and tics
#set format y '%.1tx10^{%S}'
set format y '%g'
set format x '%.0tx10^{%S}'
set xlabel x_label
set ylabel y_label
set xtics font "Times-Roman, 12" #rotate by -45 offset -2.8,-0.25
set xtics nomirror scale 0

# logscale or not
#set logscale y 2
set logscale y
#set ytics add ("1" 1)

# Output settings
#set output "./gnuplot/temp"
set output ofile

###

# Plot specific formatting
set style data histograms
set style histogram gap 1
set boxwidth 1
#set style fill pattern
#set style line solid
#set yrange [1:]


# Plot
plot ifile using 2:xtic(1) with histograms lc 0 fillstyle pattern 1,\
	"" using 3 with histograms fillstyle pattern 0 border dt 1,\
	"" using 4 with histograms fillstyle pattern 2 border dt 1,\
	"" using 5 with histograms fill transparent solid 0.25 border dt 1