### Generic Params

# Enviorment settings
set terminal pdf enhanced font 'Times-Roman,15' monochrome
set datafile separator ","

ifile = "result/exp_vary_chunk_mem_plot.csv"
ofile = "graph/exp_vary_chunk_mem.pdf"
x_label = "Query sequence"
y_label = "Memory Usage (MB)"

# Appearance
#set key outside 
#set key horizontal top outside
#set key vertical top right inside
set key horizontal top right inside maxcols 3
set key autotitle columnhead font 'Times-Roman,12'
set offset 0.0,0,graph 0.5,0

# Labels, plot axis and tics
set format y '10^{%T}'
#set format x '%g%%'
# set format x '%g'
set format x '%.0tx10^{%S}'
set xlabel x_label
set ylabel y_label# offset 3
#set xtics rotate by 45 offset -0.8,-1.8
set xtics nomirror #font 'Times-Roman,12'
set xtics 2000#

# logscale or not


# Line styles
set style line 1 lt 1 lw 3 lc 9 pt 10 pointsize 2.5 pi 3
set style line 2 lt 1 lw 3 lc 9 pt 4 pointsize 2.5 pi 3
set style line 3 lt 1 lw 3 lc 9 pt 12 pointsize 2.5 pi 3
set style line 4 lt 1 lw 3 lc 9 pt 8 pointsize 2.5 pi 3
set style line 5 lt 1 lw 3 lc 9 pt 11 pointsize 2.5 pi 3
set style line 6 lt 1 lw 3 lc 9 pt 7 pointsize 2.5 pi 3
set style line 7 lt 1 lw 3 lc 9 pt 13 pointsize 2.5 pi 3
set style line 8 lt 1 lw 3 lc 9 pt 9 pointsize 2.5 pi 3

# Output settings
set output ofile

###

# Plot specific formatting
#set style data histograms
set boxwidth 1
set style fill pattern
#set yrange [1:]
# set autoscale y
#set yrange [0:100]
set logscale y
set autoscale x
set autoscale y
#set xrange [0: 10000000]
#set yrange [0:100]
set xtics add ("0" 0)
set xtics add ("2K" 2000)
set xtics add ("4K" 4000)
set xtics add ("6K" 6000)
set xtics add ("8K" 8000)
set xtics add ("10K" 10000)
# logscale or not
#log = 1
#set format y '10^{%S}'
#set ytics add ("10^{-2}" 0.01)
#set ytics add ("10^{-1}" 0.1)
#set ytics add ("10^0" 1)
#set ytics add ("10^1" 10)
#set ytics add ("10^2" 100)
#set ytics add ("10^3" 1000)
#set ytics add ("10^4" 10000)
#set ytics add ("10^5" 100000)
#set ytics add ("10^6" 1000000)
#set yrange [0.1:]
#set autoscale y
# set ytics add (0.0, 0.5, 1.0, 1.5, 2.0)
# set yrange [0:2.2]

#set ytics add ("1" 1)
#set ytics add ("0.1" 0.1)
#set xrange [0: 10000]

# Plot
plot ifile using 1:2  with lp ls 1 ,\
	"" using 1:3  with lp ls 2 ,\
	"" using 1:4  with lp ls 3 ,\
	"" using 1:5  with lp ls 4 ,\
	"" using 1:6  with lp ls 5 ,\
	"" using 1:7  with lp ls 6 ,\
	"" using 1:8  with lp ls 7 ,\
	"" using 1:9  with lp ls 8 ,\

#plot ifile using 2:xtic(1) with histograms lc 9 fillstyle pattern 1,\
#	"" using 3 with histograms lc 9 fill solid 0.5,\


#plot ifile using 4:xtic(1) with histograms lc 9 fillstyle pattern 2,\
#	"" using 5 with histograms lc 9 fill solid 1,\