 ### Generic Params

# Enviorment settings
set terminal pdf enhanced font 'Times-Roman,15' monochrome
set datafile separator ","
set rmargin 0.5
# Appearance
#set key outside 
#set key horizontal left top
ifile = "result/exp_cache_misses.csv"
ofile = "graph/exp_cache_misses.pdf"
x_label = "Workloads"
y_label = "Total cache misses"

set key horizontal top right inside # maxcols 4 width 1
set key autotitle columnhead font "Times-Roman, 12"
set key inside
set offset -0.3,-0.3,graph 0.2,0

# Labels, plot axis and tics
#set format y '%.1tx10^{%S}'
set format y '10^{%T}'
set format x '%.0tx10^{%S}'
set xlabel x_label
set ylabel y_label
set xtics  #rotate by -45 offset -2.8,-0.25
set xtics nomirror scale 0

# logscale or not
#set logscale y 2
#set ytics add ("1" 1)

# Output settings
#set output "./gnuplot/temp"
set output ofile

###

# Plot specific formatting
set style data histograms
set style histogram gap 1
set boxwidth 1
#set style fill pattern
#set style line solid
set logscale y
set autoscale y
set yrange [: 1e11]
# set yrange [0.1:1000]


# Plot
plot ifile using 2:xtic(1) with histograms lc 0 fillstyle pattern 1,\
	"" using 3 with histograms fillstyle pattern 0 border dt 1,\
	"" using 4 with histograms fillstyle pattern 2 border dt 1,\
	"" using 5 with histograms fill transparent solid 0.25 border dt 1