 ### Generic Params

# Enviorment settings
set terminal pdf enhanced font 'Times-Roman,15' monochrome
set datafile separator ","
set rmargin 0.5
# Appearance
#set key outside
#set key horizontal left top
ifile = "result/figure14_small.csv"
ofile = "graph/figure14_small.pdf"
x_label = "Number of rows"
y_label = "Total execution time (s)"

set key horizontal top left inside width 1# maxcols 4
set key autotitle columnhead
set key inside
set offset -0.3,-0.3,graph 0.0,0

# Labels, plot axis and tics
#et format y '10^{%S}'
# set format y '%g'
set format x '%.0tx10^{%S}'
set xlabel x_label
set ylabel y_label
#set xtics font "Times-Roman, 12" #rotate by -45 offset -2.8,-0.25
set xtics nomirror scale 0

# logscale or not
#set logscale y 2
#set ytics add ("1" 1)

# Output settings
#set output "./gnuplot/temp"
set output ofile

###

# Plot specific formatting
set style data histograms
set style histogram gap 1
set boxwidth 1
#set style fill pattern
#set style line solid
set logscale y
# set yrange [1:5000]
# set xtics (1, 10, 100, 1000)

# Plot
plot ifile using 2:xtic(1) with histograms lc 0 fillstyle pattern 1,\
	"" using 3 with histograms fillstyle pattern 0 border dt 1,\
	"" using 4 with histograms fillstyle pattern 2 border dt 1,\
	"" using 5 with histograms fill transparent solid 0.25 border dt 1
